공부하는 언론인을 위한 R기반 데이터 저널리즘 - 14 부록: 본문에 사용된 분석 코드
…
해당 데이터는 교재 본문에서 안내한대로 Kaggle 홈페이지에서 다운 받을 수 있습니다.

14.1 데이터 요약: 주별, 연도별 평균

projects |>
    mutate(date_posted = as.character(date_posted),
           year = year(date_posted)) |>
    group_by(school_state, year) |>
    summarise(avg_size = mean(total_price_excluding_optional_support))

`summarise()` has grouped output by 'school_state'. You can override using the
`.groups` argument.

# A tibble: 455 x 3
# Groups:   school_state [52]
   school_state  year avg_size
   <chr>        <dbl>    <dbl>
 1 AK            2007     380.
 2 AK            2008     414.
 3 AK            2009     412.
 4 AK            2010     419.
 5 AK            2011     442.
 6 AK            2012     462.
 7 AK            2013     577.
 8 AK            2014     522.
 9 AL            2003     339.
10 AL            2004     546.
# i 445 more rows
…
