공부하는 언론인을 위한 R기반 데이터 저널리즘 - 7 크라우드펀딩 빅데이터 불러오기, 분석 가능한 형태로 만들기
…
데이터를 불러온 다음 바로 분석을 시작하면 좋겠지만, 그럴 수 있는 경우는 많지 않습니다. 내가 분석하고자 하는 데이터가 바로 분석 가능하지 않는 타입인 경우도 있고, 기존 데이터에 특정 연산을 가해 분석하고자 하는 데이터를 도출해야 하는 경우도 있습니다. 어떤 경우에는 내가 분석하고자 하는 데이터가 여러 테이블에 흩어져 있어서, 이를 결합해야 하는 경우도 있을 것입니다.

이 중 가장 흔하게 나타나는 시나리오와 이를 수행하기 위한 tidyverse 스타일의 코딩 사례를 살펴보도록 하겠습니다. 이를 위해 먼저 donorschoose.org 데이터 중 두 개의 테이블을 R로 불러오도록 하겠습니다.

projects <- read_csv("data/projects.csv")
donations <- read_csv("data/donations.csv")

7.2.1 데이터 탐색

먼저 projects 데이터프레임을 한 번 훑어보겠습니다.

projects

# A tibble: 664,098 x 35
   projectid               teacher_acctid schoolid school_ncesid school_latitude
   <chr>                   <chr>          <chr>    <chr>                   <dbl>
 1 316ed8fb3b81402ff6ac8f~ 42d43fa6f3731~ c0e6ce8~ 063627006187             36.6
 2 90de744e368a7e4883223c~ 864eb466462bf~ d711e47~ 483702008193             32.9
 3 32943bb1063267de6ed19f~ 37f85135259ec~ 665c361~ 410327000109             45.2
 4 bb18f409abda2f264d5acd~ 2133fc46f951f~ 4f12c3f~ 360015302507             40.6
 5 24761b686e18e5eace6346~ 867ff478a63f5~ 10179fd~ 062271003157             34.0
 6 eac7d156205f1333de3887~ ff064802c18e6~ 929336e~ 040187001058             33.3
 7 5a3bfdf2e05781ccd0654d~ 085794a9e315b~ dc34b02~ 010060000256             32.8
 8 afda16eb54d8992db7bb42~ 1d94a31c2dc38~ 86fff7c~ 130129000571             33.9
 9 2ab3efb23acc84017cd789~ 5a497c425e05b~ ed170a1~ 261200001297             42.4
10 3118962680bb062323c356~ eb0855cc6ea55~ 71b4dee~ 340264001386             40.0
# i 664,088 more rows
# i 30 more variables: school_longitude <dbl>, school_city <chr>,
#   school_state <chr>, school_zip <chr>, school_metro <chr>,
#   school_district <chr>, school_county <chr>, school_charter <lgl>,
#   school_magnet <lgl>, school_year_round <lgl>, school_nlns <lgl>,
#   school_kipp <lgl>, school_charter_ready_promise <lgl>,
#   teacher_prefix <chr>, teacher_teach_for_america <lgl>, ...
…
주어진 데이터를 분석에 그대로 사용하는 경우는 많지 않습니다. 주어진 변수, 또는 변수들을 바탕으로 분석에 적합한 새로운 변수를 만들어 주어야 합니다. 예컨대, 야구에서 타수와 안타 수가 주어져 있을 때, 타자의 타격 능력을 분석하기 위해서 두 변수를 조합해 타율을 계산하는 경우가 그런 경우에 해당할 것입니다.

이렇게 새로운 변수를 만들기 위한 tidyverse 문법은 mutate() 함수를 사용하는 것입니다. 그 형식은 대략 다음과 같습니다.

원래 데이터프레임 |> mutate(새 변수 이름 = 함수(원래 변수))

이렇게 원래의 데이터프레임에 mutate()을 적용하고 나면, 그 결과물은 새로 생산된 변수가 아닙니다! mutate()의 결과물은 원래의 데이터프레임에 새로운 변수(열)이 추가된 새로운 데이터프레임 입니다.

앞서 불러온 donorschoose.org 데이터의 projects 테이블에서 각 프로젝트의 목표액이 달러로 포함되어 있는데요, 보도하는 사람이 이 목표액을 원화로 표시하고 싶었다고 해 보지요. 원달러 환율이 대략 1,200이라고 치면, 원화로 표현된 목표액은 원래 변수에 1,200을 곱한 것이 되겠네요. 사실 목표액에 해당하는 변수는 projects 테이블에 두 개 있는데, 그 중 일단 total_price_excluding_optional_support를 이용하겠습니다. 그러면, 새 변수를 만들기 위해서는 다음과 같이 써 주면 됩니다.

projects |>
    mutate(size_kw = total_price_excluding_optional_support * 1200)

# A tibble: 664,098 x 36
   projectid               teacher_acctid schoolid school_ncesid school_latitude
   <chr>                   <chr>          <chr>    <chr>                   <dbl>
 1 316ed8fb3b81402ff6ac8f~ 42d43fa6f3731~ c0e6ce8~ 063627006187             36.6
 2 90de744e368a7e4883223c~ 864eb466462bf~ d711e47~ 483702008193             32.9
 3 32943bb1063267de6ed19f~ 37f85135259ec~ 665c361~ 410327000109             45.2
 4 bb18f409abda2f264d5acd~ 2133fc46f951f~ 4f12c3f~ 360015302507             40.6
 5 24761b686e18e5eace6346~ 867ff478a63f5~ 10179fd~ 062271003157             34.0
 6 eac7d156205f1333de3887~ ff064802c18e6~ 929336e~ 040187001058             33.3
 7 5a3bfdf2e05781ccd0654d~ 085794a9e315b~ dc34b02~ 010060000256             32.8
 8 afda16eb54d8992db7bb42~ 1d94a31c2dc38~ 86fff7c~ 130129000571             33.9
 9 2ab3efb23acc84017cd789~ 5a497c425e05b~ ed170a1~ 261200001297             42.4
10 3118962680bb062323c356~ eb0855cc6ea55~ 71b4dee~ 340264001386             40.0
# i 664,088 more rows
# i 31 more variables: school_longitude <dbl>, school_city <chr>,
#   school_state <chr>, school_zip <chr>, school_metro <chr>,
#   school_district <chr>, school_county <chr>, school_charter <lgl>,
#   school_magnet <lgl>, school_year_round <lgl>, school_nlns <lgl>,
#   school_kipp <lgl>, school_charter_ready_promise <lgl>,
#   teacher_prefix <chr>, teacher_teach_for_america <lgl>, ...
보시다시피, 위의 코드를 실행시키면, 원래 projects 테이블에 새로 만들어진 변수가 추가된 커다란 테이블이 출력됩니다. 하지만 이러한 코드에는 문제가 있습니다. 여러번 반복해서 말하기 때문에 눈치채신 분도 있겠지만, 이렇게 새로 만들어진 테이블은 원래의 테이블과는 다른 새로운 테이블이고, 이 새로운 테이블에는 이름이 없습니다! 이름이 없는 데이터는 존재하지 않는 데이터나 마찬가지라고 했지요? 따라서, 기껏 새로운 변수를 만들고 모니터로 한 번 확인하고는 이를 그냥 버린 것과 다름 없습니다.

그렇다면, projects 테이블에 새 변수(열)을 추가 하려면 어떻게 해야 할까요? 다음과 같이 하면 됩니다.

projects <- projects |>
    mutate(size_kw = total_price_excluding_optional_support * 1200)

앞의 예와 유일한 차이는 projects <- 이 부분 뿐입니다. 즉, mutate()을 통해 새로운 테이블을 만든 후, 그 테이블의 이름을 원래의 테이블 이름인 projects에 할당해 버린 것이지요. 엄밀히 말하면, 이제 변수를 새로 만들기 전 원래 테이블은 사라져 버리고, 새로운 테이블이 원래의 테이블을 대신해서 projects라는 이름을 대체하고 있는 것이지요.

만약, size_kw라는 새로운 변수를 만들지 않고, 원화로 표시된 숫자가 원래 total_price_excluding_optional_support 열에 기록된 숫자를 대체하기를 바란다면 어떻게 할까요? 위의 예와 비슷한 논리로 다음과 같이 하면 됩니다.

projects |>
    mutate(total_price_excluding_optional_support = total_price_excluding_optional_support * 1200)

# A tibble: 664,098 x 36
   projectid               teacher_acctid schoolid school_ncesid school_latitude
   <chr>                   <chr>          <chr>    <chr>                   <dbl>
 1 316ed8fb3b81402ff6ac8f~ 42d43fa6f3731~ c0e6ce8~ 063627006187             36.6
 2 90de744e368a7e4883223c~ 864eb466462bf~ d711e47~ 483702008193             32.9
 3 32943bb1063267de6ed19f~ 37f85135259ec~ 665c361~ 410327000109             45.2
 4 bb18f409abda2f264d5acd~ 2133fc46f951f~ 4f12c3f~ 360015302507             40.6
 5 24761b686e18e5eace6346~ 867ff478a63f5~ 10179fd~ 062271003157             34.0
 6 eac7d156205f1333de3887~ ff064802c18e6~ 929336e~ 040187001058             33.3
 7 5a3bfdf2e05781ccd0654d~ 085794a9e315b~ dc34b02~ 010060000256             32.8
 8 afda16eb54d8992db7bb42~ 1d94a31c2dc38~ 86fff7c~ 130129000571             33.9
 9 2ab3efb23acc84017cd789~ 5a497c425e05b~ ed170a1~ 261200001297             42.4
10 3118962680bb062323c356~ eb0855cc6ea55~ 71b4dee~ 340264001386             40.0
# i 664,088 more rows
# i 31 more variables: school_longitude <dbl>, school_city <chr>,
#   school_state <chr>, school_zip <chr>, school_metro <chr>,
#   school_district <chr>, school_county <chr>, school_charter <lgl>,
#   school_magnet <lgl>, school_year_round <lgl>, school_nlns <lgl>,
#   school_kipp <lgl>, school_charter_ready_promise <lgl>,
#   teacher_prefix <chr>, teacher_teach_for_america <lgl>, ...

즉, 원래의 값에 1200을 곱한 값에 원래의 이름을 할당함으로써, 새로운 값이 원래의 값을 대체하도록 하는 것입니다.

앞서 projects 테이블에 프로젝트 목표액에 해당하는 열이 두 개라고 했지요? 앞에서 사용한 것과 다른 하나는 total_price_including_optional_support 입니다. 앞에서 사용한 변수가 “optional_support”라는 것을 제외한(excluding) 금액이었다면, 두번째 변수는 “optional_support”를 포함한다(including)는 차이가 있습니다. 사실 “optional support”는 해당 프로젝트에 지원되는 금액이 아니라, ’donorschoose.org’에 지원되는 금액을 의미합니다. ’donorschoose.org’도 서비스를 유지하기 위해 직원 월급, 홈페이지 유지비 등 다양한 비용을 지불해야 할테니까요.

이제 기자가 이 “optional_support”가 전체 프로젝트 목표액에서 차지하는 비율(%)에 관심을 가지게 되었다고 합시다. 그러면 두 개의 목표액 수치를 조합해서 이 비율을 계산해야 하겠네요. 이 역시 mutate()을 이용해 쉽게 할 수 있습니다.

projects |>
    mutate(ratio = (total_price_including_optional_support - total_price_including_optional_support) / total_price_excluding_optional_support)

# A tibble: 664,098 x 37
   projectid               teacher_acctid schoolid school_ncesid school_latitude
   <chr>                   <chr>          <chr>    <chr>                   <dbl>
 1 316ed8fb3b81402ff6ac8f~ 42d43fa6f3731~ c0e6ce8~ 063627006187             36.6
 2 90de744e368a7e4883223c~ 864eb466462bf~ d711e47~ 483702008193             32.9
 3 32943bb1063267de6ed19f~ 37f85135259ec~ 665c361~ 410327000109             45.2
 4 bb18f409abda2f264d5acd~ 2133fc46f951f~ 4f12c3f~ 360015302507             40.6
 5 24761b686e18e5eace6346~ 867ff478a63f5~ 10179fd~ 062271003157             34.0
 6 eac7d156205f1333de3887~ ff064802c18e6~ 929336e~ 040187001058             33.3
 7 5a3bfdf2e05781ccd0654d~ 085794a9e315b~ dc34b02~ 010060000256             32.8
 8 afda16eb54d8992db7bb42~ 1d94a31c2dc38~ 86fff7c~ 130129000571             33.9
 9 2ab3efb23acc84017cd789~ 5a497c425e05b~ ed170a1~ 261200001297             42.4
10 3118962680bb062323c356~ eb0855cc6ea55~ 71b4dee~ 340264001386             40.0
# i 664,088 more rows
# i 32 more variables: school_longitude <dbl>, school_city <chr>,
#   school_state <chr>, school_zip <chr>, school_metro <chr>,
#   school_district <chr>, school_county <chr>, school_charter <lgl>,
#   school_magnet <lgl>, school_year_round <lgl>, school_nlns <lgl>,
#   school_kipp <lgl>, school_charter_ready_promise <lgl>,
#   teacher_prefix <chr>, teacher_teach_for_america <lgl>, ...
…
이제 donorschoose.org의 두 테이블을 연결해 보도록 하지요.

일단, donations 테이블이 projects 테이블보다 훨씬 더 큰 테이블일 수밖에 없다는 것을 확인합시다. 왜냐하면, 하나의 프로젝트에 대해서 여러개의 기부가 이루어졌을 수 있기 때문이지요. 만약 프로젝트 A에 대해서 기부가 세번 이루어졌다면 ’A’라는 프로젝트의 고유값은 donations 테이블에 세번 등장할 것입니다. 따라서, donations 테이블을 기준으로 projects 테이블을 연결하는 것이 자연스럽겠지요.

대신 projects 테이블에는 21개의 열이, donations 테이블에는 35개의 열이 있으니, 연결 후 정보를 확인하기 너무 어렵습니다. 각 테이블에서 일부 관심있는 열만 뽑아서 연결한 후, 이를 connected라는 테이블로 메모리에 저장하겠습니다..

connected <- donations |>
    select(projectid, donation_to_project, donation_optional_support, donation_timestamp) |>
    left_join(projects |>
                  select(projectid, total_price_including_optional_support), 
              by = c("projectid"="projectid"))
connected

# A tibble: 3,097,989 x 5
   projectid      donation_to_project donation_optional_su~1 donation_timestamp 
   <chr>                        <dbl>                  <dbl> <dttm>             
 1 ffffac55ee02a~               42.5                    7.5  2011-08-25 14:27:34
 2 ffffac55ee02a~               26.8                    4.73 2011-11-04 07:54:21
 3 ffffac55ee02a~               55.4                    0    2011-11-02 22:53:53
 4 ffffac55ee02a~                8.5                    1.5  2011-11-03 23:54:01
 5 ffffac55ee02a~               20                      0    2011-11-02 23:21:00
 6 ffffac55ee02a~                4.25                   0.75 2011-10-16 20:59:09
 7 ffffac55ee02a~               50                      0    2011-08-31 08:13:55
 8 ffff97ed93720~              212.                    37.5  2010-11-12 16:11:46
 9 ffff97ed93720~              185.                    32.6  2010-12-01 14:52:17
10 ffff97ed93720~               21.2                    3.75 2010-11-23 09:09:10
# i 3,097,979 more rows
# i abbreviated name: 1: donation_optional_support
# i 1 more variable: total_price_including_optional_support <dbl>
…
