지역 언론인을 위한 R기반 데이터 저널리즘 - 10 데이터 수집하기
…
테그에 둘러싸인 부분)만을 가져오는 함수가 html_table()인 것입니다. 그 결과를 tables라는 변수에 저장시켰습니다.

그 다음 Sys.setlocale("LC_ALL", "korean")은 R의 문자 환경을 바꾸어 주는 옵션인데요, 웹에서 복사해 온 데이터가 한글로 되어 있음을 알려주는 것이라는 정도로 이해하면 좋겠습니다.

위의 str(tables)의 결과를 보면 tables는 3개의 테이블로 구성된 리스트라는 것을 알 수 있습니다. 그것은 우리가 스크레이핑 하려고 했던 페이지에 사실은 테이블이 3개 있었기 때문입니다. 우리가 관심을 가지고 있는 큰 테이블 말고도, 아래에서 보는 것처럼, ‘일러두기’ 부분 역시 테이블로 되어 있습니다.

캡처: 일러두기

우리가 스크레이핑 하려고 했던 테이블은 3번째 테이블로 저장이 되어 있으니, 다음과 같이 원하는 부분을 서브세팅 해 주면 최종 결과를 얻을 수 있습니다.

drama2023 <- tables[[3]]
drama2023

# A tibble: 85 x 11
   작품명 극본  연출  `방송 기간(시작/종영)` 방송횟수 `방송사(채널)` 유형  UHD  
   <chr>  <chr> <chr> <chr>                  <chr>    <chr>          <chr> <lgl>
 1 《고~  김선~ 부성~ 2022.01.032022.02.22   16       tvN            월화  NA   
 2 《마~  이영~ 소재~ 2022.01.052022.01.19   5        tvN            수목  NA   
 3 《트~  김현~ 이승~ 2022.01.072022.03.25   16 (32)  MBC            금토  NA   
 4 《악~  설이~ 박보~ 2022.01.142022.03.12   16 (32)  SBS            금토  NA   
 5 《술~  위소~ 김정~ 2022.02.032022.02.17   5        tvN            수목  NA   
 6 《기~  선영  차영~ 2022.02.122022.04.03   16       JTBC           토일  NA   
 7 《스~  권도~ 이희~ 2022.02.122022.04.03   16       tvN            토일  NA   
 8 《서~  유영~ 김상~ 2022.02.162022.03.31   12       JTBC           수목  NA   
 9 《스~  한희~ 이철  2022.02.232022.04.06   12       IHQ , MBN      수목  NA   
10 《결~  임성~ 오상~ 2022.02.262022.05.01   16       TV조선         토일  NA   
# i 75 more rows
# i 3 more variables: 방송여부 <chr>, 시청등급 <lgl>, 비고 <chr>
…
