공부하는 언론인을 위한 R기반 데이터 저널리즘 - 8 데이터 요약하기 (= 분석하기)
…
8.2 그룹별 요약

전체 데이터를 요약하는 것이 유용할 때도 많지만, 사실 데이터 분석에서 훨씬 더 자주 사용하는 것은 그룹별 요약 입니다. 예컨대, 대한민국 1인당 국민소득이 관심사일 수도 있지만, 지역별 1인당 국민소득에 관심을 가질 때도 있는 것이지요.

특히, 의미 있는 분석 결과를 도출하기 위해서는 특정 그룹 사이를 비교하는 것이 효과적이기 때문에, 이러한 그룹별 비교는 더욱 자주 사용하게 됩니다. 앞서의 예에서라면, 전라남도와 경상남도의 1인당 국민소득을 비교하는 것도 그룹별 비교이지만, 연도를 하나의 그룹이라고 생각한다면, 연도별 1인당 국민소득을 비교하는 것 역시 그룹별 비교라고 할 수 있습니다.

tidyverse 문법에서 그룹별 요약을 하기 위해서는 summarise() 함수 앞에 group_by() 함수를 사용해 주면 됩니다. 단, group_by() 함수의 인수로 요약에 사용하고 싶은 그룹 정보가 담긴 컬럼명을 표시해주면 됩니다.

projects |>
    group_by(school_state) |>
    summarise(avg_size = mean(total_price_excluding_optional_support))

# A tibble: 52 x 2
   school_state avg_size
   <chr>           <dbl>
 1 AK               516.
 2 AL               507.
 3 AR               524.
 4 AZ               500.
 5 CA               599.
 6 CO               505.
 7 CT               480.
 8 DC               511.
 9 DE               411.
10 FL               488.
# i 42 more rows

이렇게 하면, donorschoose.org에 생성된 프로젝트들의 주별 평균 목표액 크기가 구해진 것입니다.

이렇게 group_by()를 이용한 요약에서 두 가지를 이해하면 좋습니다.

첫째, group_by()까지 실행했을 때는 것으로 보기에 아무 일도 일어나지 않습니다. 이를 확인하기 위해서 위의 코드에서 일부만을 실행해 보겠습니다.

projects |>
    group_by(school_state)

# A tibble: 664,098 x 35
# Groups:   school_state [52]
   projectid               teacher_acctid schoolid school_ncesid school_latitude
   <chr>                   <chr>          <chr>    <chr>                   <dbl>
 1 316ed8fb3b81402ff6ac8f~ 42d43fa6f3731~ c0e6ce8~ 063627006187             36.6
 2 90de744e368a7e4883223c~ 864eb466462bf~ d711e47~ 483702008193             32.9
 3 32943bb1063267de6ed19f~ 37f85135259ec~ 665c361~ 410327000109             45.2
 4 bb18f409abda2f264d5acd~ 2133fc46f951f~ 4f12c3f~ 360015302507             40.6
 5 24761b686e18e5eace6346~ 867ff478a63f5~ 10179fd~ 062271003157             34.0
 6 eac7d156205f1333de3887~ ff064802c18e6~ 929336e~ 040187001058             33.3
 7 5a3bfdf2e05781ccd0654d~ 085794a9e315b~ dc34b02~ 010060000256             32.8
 8 afda16eb54d8992db7bb42~ 1d94a31c2dc38~ 86fff7c~ 130129000571             33.9
 9 2ab3efb23acc84017cd789~ 5a497c425e05b~ ed170a1~ 261200001297             42.4
10 3118962680bb062323c356~ eb0855cc6ea55~ 71b4dee~ 340264001386             40.0
# i 664,088 more rows
# i 30 more variables: school_longitude <dbl>, school_city <chr>,
#   school_state <chr>, school_zip <chr>, school_metro <chr>,
#   school_district <chr>, school_county <chr>, school_charter <lgl>,
#   school_magnet <lgl>, school_year_round <lgl>, school_nlns <lgl>,
#   school_kipp <lgl>, school_charter_ready_promise <lgl>,
#   teacher_prefix <chr>, teacher_teach_for_america <lgl>, ...
…
projects <- projects |>
    mutate(date_posted = ymd(date_posted))
str(projects$date_posted)

 Date[1:664098], format: "2014-05-12" "2014-05-12" "2014-05-11" "2014-05-11" "2014-05-11" ...

이제 다시 데이터 타입이 Date으로 돌아왔습니다. 만약 날짜를 표시하는 방식이 “2014-05-11”이 아니고, “May 11, 2014” 였다면, 해당 함수는 mdy()겠지요. 영국식으로 “11/5/2014” 였다면, dmy()였을 테고요.

R이 date_posted를 날짜로 인식하고 있기 때문에, 여기서 연도를 추출하는 것도 어렵지 않습니다.

projects |> 
    mutate(year = year(date_posted)) |>
    select(year, date_posted)

# A tibble: 664,098 x 2
    year date_posted
   <dbl> <date>     
 1  2014 2014-05-12 
 2  2014 2014-05-12 
 3  2014 2014-05-11 
 4  2014 2014-05-11 
 5  2014 2014-05-11 
 6  2014 2014-05-11 
 7  2014 2014-05-11 
 8  2014 2014-05-11 
 9  2014 2014-05-11 
10  2014 2014-05-11 
# i 664,088 more rows
…
연도별 평균을 주(state)에 따라 따로 계산할 수도 있을까요? 물론입니다. group_by()를 두 변수에 대해서 해 주면 되지요.

projects |> 
    mutate(year = year(date_posted)) |>
    group_by(school_state, year) |>
    summarise(avg_size = mean(total_price_excluding_optional_support))

`summarise()` has grouped output by 'school_state'. You can override using the
`.groups` argument.

# A tibble: 455 x 3
# Groups:   school_state [52]
   school_state  year avg_size
   <chr>        <dbl>    <dbl>
 1 AK            2007     380.
 2 AK            2008     414.
 3 AK            2009     412.
 4 AK            2010     419.
 5 AK            2011     442.
 6 AK            2012     462.
 7 AK            2013     577.
 8 AK            2014     522.
 9 AL            2003     339.
10 AL            2004     546.
# i 445 more rows
…
