공부하는 언론인을 위한 R기반 데이터 저널리즘 - 8 데이터 시각화
…
x축에 시간이 있으니, 조금 더 익숙한 모양의 그래프가 되지요? 우리는 자연스럽게 시간에 따른 ’경향(trend)’를 파악할 수 있습니다.

물론 지금까지 배운 것들을 결합하면 여러개의 경향을 한 번에 표현할 수도 있습니다. <데이터 요약하기> 장에서 다룬 코드를 다시 한 번 가져와 보도록 하지요.

projects |> 
    mutate(year = year(date_posted)) |>
    group_by(school_state, year) |>
    summarise(avg_size = mean(total_price_excluding_optional_support))

`summarise()` has grouped output by 'school_state'. You can override using the
`.groups` argument.

# A tibble: 455 x 3
# Groups:   school_state [52]
   school_state  year avg_size
   <chr>        <dbl>    <dbl>
 1 AK            2007     380.
 2 AK            2008     414.
 3 AK            2009     412.
 4 AK            2010     419.
 5 AK            2011     442.
 6 AK            2012     462.
 7 AK            2013     577.
 8 AK            2014     522.
 9 AL            2003     339.
10 AL            2004     546.
# i 445 more rows

보다시피, 연도 뿐만이 아니라, 각 주에 대해서도 프로젝트 목표액 평균이 구해졌습니다. 모든 주에 대해 그래프를 그리려면 너무 많을 테니, 앞서 분석한 세 개의 주 중, 하와이(HI)와 뉴욕(NY)에 대한 데이터만 filter()를 이용해 서브세팅 하기로 하지요.

projects |> 
    mutate(year = year(date_posted)) |>
    group_by(school_state, year) |>
    summarise(avg_size = mean(total_price_excluding_optional_support)) |> 
    filter(school_state %in% c("HI", "NY"))

`summarise()` has grouped output by 'school_state'. You can override using the
`.groups` argument.

# A tibble: 21 x 3
# Groups:   school_state [2]
   school_state  year avg_size
   <chr>        <dbl>    <dbl>
 1 HI            2007     438.
 2 HI            2008     588.
 3 HI            2009     445.
 4 HI            2010     564.
 5 HI            2011     455.
 6 HI            2012     466.
 7 HI            2013     896.
 8 HI            2014     730.
 9 NY            2002     611.
10 NY            2003     971.
# i 11 more rows
…
